staff,adverts,projects,profitability
8.768088257,24.51582655,8.499297577,142.0953899
9.129024612,27.00261175,7.414979648,123.2964815
8.269364614,25.49613231,6.524984805,110.8110516
9.838062588,18.27311267,5.211358922,90.64957591
10.38226752,11.99289228,7.973063432,84.34363156
12.43429589,26.89989671,6.77399454,89.44733274
10.25177994,24.74538895,4.198278138,89.23058071
10.02419659,22.23436144,5.617333179,96.5101229
10.82876904,18.38586569,4.034544948,85.34385137
10.83158565,28.32210315,5.25052849,89.21020617
12.15955541,23.49083897,2.790262279,59.57891635
9.295421694,22.19834337,7.800029588,123.422102
11.08711723,23.61559712,5.566888056,86.52450671
7.213480674,21.33132919,4.610908719,102.4504472
9.467371557,24.40776845,5.280471096,102.0385232
9.243404933,32.64841689,7.190965831,125.1430691
7.543401668,20.08370351,7.069788771,113.9219661
11.24776323,13.55091303,6.292120378,66.7972167
10.74803223,23.12913039,3.840828006,88.89464719
11.72344601,21.70405831,5.347703219,85.26220825
10.11123414,23.40218191,6.613103537,103.4389743
10.79068926,22.61771917,6.186327394,96.63736118
9.890998047,20.83327005,5.033966984,91.68668221
6.98774183,22.94859326,4.063377225,103.5609609
8.736408509,17.95120437,4.894888433,96.87339192
10.43287136,27.85573028,6.903400655,100.8915268
8.91062628,21.44692201,4.859170002,101.6568006
8.360296357,23.9080494,5.211764769,113.5267675
8.526634172,24.37584433,4.942109186,111.0269908
8.958617046,26.85487827,7.724937415,130.7009243
10.06736824,16.11048378,5.390460133,77.8774939
8.712353965,16.33990685,6.932189133,109.3187397
11.3825282,21.88184759,3.655488531,80.12377553
6.570042017,18.92813596,6.4188308,101.673472
9.308314762,22.82714706,7.43461102,132.3684105
7.951959588,20.47972888,5.847737051,105.6193914
9.860096261,27.13659963,4.082879662,101.4451203
8.653469517,17.28903418,6.199793457,106.671955
10.00594118,24.21334453,3.012714057,100.0021099
10.25587395,20.1960575,5.044908902,91.16125136
6.973979849,23.17248385,7.365174094,119.4403189
11.57364308,26.32223087,7.262024557,104.2858065
9.402112449,20.77218222,7.17783439,117.2801692
10.08415928,20.72365768,6.586975033,104.8392503
9.295663233,23.29641239,5.066142633,113.5543947
8.721197414,13.57273993,2.435163367,78.01192054
10.71167003,25.12230671,7.184955531,106.271309
9.57785644,19.20385845,5.538342097,99.32165716
7.027288457,22.64793773,5.340978747,94.49064798
8.094164688,23.54563367,6.036625676,113.2286674