id,x1,x2,x3,x4,x5,x6,x7,x8,x9,x10,x11,x12,x13,x14
96,0,60.960,2.680,186.810,0.670,4.020,45.110,5.930,0.670,705.980,0.000,42.020,2.680,100.000
97,0,55.020,7.420,11.340,2.180,4.360,89.580,3.290,1.310,568.750,2.000,29.960,4.720,100.000
99,0,69.080,51.500,56.980,23.530,28.410,129.330,16.780,9.920,806.070,18.000,29.210,11.240,41.700
101,0,53.540,64.430,59.060,1.340,2.680,86.710,9.090,2.680,675.820,0.000,21.330,8.510,32.170
103,0,61.610,56.860,96.730,19.570,20.310,88.330,13.870,1.850,705.080,6.000,18.790,3.140,74.960
104,0,65.250,69.710,105.800,5.930,11.370,58.870,9.020,4.450,590.660,14.000,32.230,3.950,81.310
106,0,71.190,60.250,91.620,15.690,19.250,76.190,17.070,9.270,817.400,6.000,31.810,3.390,87.580
108,0,68.930,34.210,84.500,12.390,20.060,72.880,12.090,2.800,1115.330,25.000,59.380,4.210,92.240
109,0,74.560,47.980,66.220,13.710,21.090,17.550,21.580,9.700,984.000,55.000,43.090,6.690,11.490
111,0,57.340,47.250,66.730,31.130,30.460,192.280,17.380,0.000,613.390,14.000,26.350,8.380,98.620
112,0,61.630,30.880,34.150,6.240,8.020,81.750,9.310,0.890,773.170,10.000,38.200,4.040,100.000
113,0,68.790,129.970,94.380,17.560,35.750,422.060,15.840,2.040,1252.310,0.000,62.530,24.430,86.270
114,0,70.150,108.230,52.490,9.760,11.500,95.320,17.100,3.900,760.650,13.000,38.160,6.450,74.110
116,0,67.540,58.010,78.910,6.790,12.540,38.990,5.660,5.750,438.780,13.000,19.610,3.560,48.900
117,0,60.960,14.910,59.400,9.610,24.520,115.840,13.970,3.030,686.850,9.000,34.080,6.690,85.970
118,0,87.900,2.630,0.000,0.000,2.630,0.000,12.500,2.630,561.130,0.000,15.760,0.630,0.000
120,0,62.530,63.770,201.560,21.310,45.390,255.280,11.000,1.950,940.270,10.000,31.540,10.630,80.580
122,0,60.230,2.110,20.040,2.810,9.490,60.560,8.530,1.050,906.000,0.000,42.230,4.280,65.990
123,0,62.520,14.850,31.710,9.830,22.680,151.630,23.290,2.810,692.850,11.000,27.560,9.860,61.160
124,0,64.010,54.980,127.460,30.410,27.280,96.340,17.390,12.080,789.530,33.000,36.800,5.250,85.560
126,0,66.250,10.020,64.590,12.440,20.380,61.130,13.040,27.980,630.570,5.000,27.330,3.470,76.290
127,1,64.830,141.390,189.510,17.080,20.550,64.750,13.520,7.100,809.720,99.000,32.810,10.390,25.250
130,0,92.180,8.290,25.600,6.490,7.750,191.280,15.350,12.260,2411.210,13.000,56.970,7.130,63.350
131,1,75.000,68.500,136.630,22.280,37.150,851.170,13.770,4.570,1645.610,38.000,36.440,25.270,74.580
132,0,62.520,15.790,94.460,7.900,17.430,282.070,13.770,0.000,1122.830,9.000,36.820,12.540,73.750
133,0,73.860,18.350,27.520,5.610,10.190,149.420,2.030,1.020,3039.850,1.000,58.330,6.270,45.710
134,0,76.830,271.140,378.230,31.040,46.910,698.200,16.580,5.410,1860.800,114.000,41.690,21.760,71.880
140,1,77.120,242.110,310.680,61.000,72.590,2376.030,20.710,5.910,3354.150,38.000,44.220,38.970,80.380
141,0,88.730,53.230,76.270,4.830,4.980,47.790,18.270,0.930,1046.560,10.000,34.570,2.590,60.950
143,0,74.120,16.530,111.290,7.710,5.510,94.100,10.620,4.410,532.120,0.000,12.040,6.730,31.640
144,1,73.710,112.250,292.320,71.950,172.160,958.250,23.670,0.850,4077.500,107.000,58.140,14.600,93.610
147,1,83.980,201.600,359.960,32.850,54.680,653.690,22.890,4.270,1692.060,175.000,26.650,25.640,40.160
148,0,70.000,679.040,1056.520,50.740,73.020,218.650,22.560,2.060,1180.740,32.000,18.180,15.750,21.380
150,0,72.410,58.950,194.420,4.830,12.750,129.710,14.360,1.720,2310.740,11.000,49.410,5.130,54.100
151,0,72.060,64.490,98.840,17.070,25.500,136.460,11.900,0.000,1074.320,0.000,25.150,3.320,96.250
155,0,68.390,589.790,85.680,32.880,73.230,58.410,20.430,0.500,1342.650,20.000,28.310,6.200,19.870
158,0,73.650,85.080,169.140,13.840,53.820,313.090,11.210,0.510,3160.000,36.000,46.590,5.040,91.520
159,0,81.290,0.000,0.000,0.000,0.000,49.100,8.330,0.000,1286.450,0.000,32.400,5.300,23.360
160,0,71.990,112.720,143.250,11.860,23.640,13.990,11.650,1.130,1279.090,45.000,33.420,3.650,10.000
161,1,97.520,7135.520,7761.500,217.130,247.860,3185.780,31.120,22.120,3993.680,1042.000,45.550,46.330,78.430
162,1,72.970,261.210,416.840,60.150,94.200,1577.650,26.700,15.490,3206.220,115.000,44.490,27.090,80.800
163,0,68.790,0.000,0.600,3.010,7.230,41.910,9.180,0.000,764.220,0.000,25.110,2.480,55.590
164,0,73.010,26.150,291.840,33.470,26.150,152.720,12.000,0.000,1640.860,0.000,41.600,3.870,100.000
165,1,92.280,3203.410,3610.080,279.070,348.530,1661.290,14.040,0.000,3607.110,613.000,36.990,32.690,52.110
166,0,67.960,43.530,45.200,4.990,9.150,231.890,7.590,0.830,1073.280,5.000,44.140,9.640,98.900
167,0,75.730,10.700,25.460,16.300,10.190,11.070,15.490,4.070,1230.810,1.000,65.530,1.000,58.940
168,0,72.760,31.050,178.940,15.990,32.900,195.330,15.300,1.230,1210.980,7.000,43.630,10.470,67.210
169,0,67.480,261.660,371.650,29.580,46.260,324.180,16.690,7.550,890.620,190.000,28.650,29.560,35.280
222,1,82.650,222.780,276.030,71.810,95.300,150.850,24.140,4.830,4312.160,634.000,63.080,4.900,45.030
173,0,65.860,85.060,128.920,31.260,23.020,121.940,7.260,7.750,1118.780,34.000,38.240,8.370,49.780
174,0,79.960,32.200,34.430,5.550,2.220,153.400,6.670,1.110,1217.540,0.000,42.350,6.100,87.420
175,0,67.010,55.860,87.910,12.820,37.550,87.980,11.820,2.290,621.270,2.000,23.710,4.360,76.940
176,0,72.350,65.090,97.450,15.990,19.940,84.750,15.550,4.700,887.780,18.000,41.760,6.890,57.880
177,0,72.690,449.140,541.920,47.170,102.440,290.220,20.570,4.770,1119.070,59.000,39.080,14.150,71.640
59,1,83.200,2311.900,3623.970,170.460,240.850,2018.470,20.430,18.630,5354.230,673.000,47.370,21.790,81.940
179,0,76.960,8.980,23.210,5.740,9.980,51.940,11.010,0.250,1517.850,0.000,76.160,3.050,85.370
180,0,53.250,0.000,13.700,1.370,13.700,183.390,3.530,0.000,1751.400,0.000,37.180,3.890,100.000
182,0,67.540,18.310,24.320,6.010,7.100,59.340,6.320,1.640,583.140,5.000,30.930,4.050,77.650
183,0,63.750,134.910,109.590,51.670,48.210,129.560,22.030,2.430,753.840,89.000,29.740,7.010,72.930
184,0,67.970,166.890,224.210,33.140,28.780,131.130,9.620,7.740,1032.380,39.000,40.270,6.420,79.660
186,0,71.680,43.490,49.260,14.640,11.540,141.050,13.550,5.770,573.050,3.000,25.400,7.480,83.560
187,0,67.000,77.090,50.710,16.680,23.760,25.110,11.690,4.450,484.580,35.000,25.620,4.070,32.580
189,0,0.000,14.290,66.390,1.680,7.560,121.010,23.330,0.840,797.210,0.000,67.340,10.220,100.000
191,0,68.190,26.710,49.300,9.710,13.090,7.110,12.090,3.270,600.950,64.000,29.660,5.260,6.670
192,0,61.390,33.630,65.770,29.900,32.880,11.430,18.440,7.470,712.050,2.000,22.040,2.890,12.230
194,0,68.570,89.870,132.390,13.990,19.470,51.370,17.700,4.910,1019.290,71.000,49.140,4.460,55.520
195,0,63.240,42.320,118.730,15.360,16.480,71.190,16.270,1.500,383.560,5.000,17.930,3.330,100.000
196,0,71.000,12.950,36.500,6.670,14.130,24.090,12.970,9.420,643.750,0.000,31.770,3.020,39.360
197,1,67.760,154.790,297.210,29.970,54.840,1632.520,26.220,17.310,2530.410,50.000,47.880,35.830,86.200
198,1,73.800,216.520,486.250,31.800,40.540,307.340,25.490,11.910,1204.700,21.000,46.870,14.680,81.450
199,0,67.460,58.910,88.520,19.150,28.650,229.830,9.530,9.170,765.170,29.000,25.800,20.040,38.670
201,0,73.550,113.680,120.760,7.760,7.420,64.660,10.200,3.040,748.550,5.000,37.250,5.700,56.420
202,0,67.480,20.080,50.670,15.300,22.940,96.320,20.470,1.910,1099.300,3.000,58.520,5.430,94.380
206,0,0.000,2404.760,2757.940,95.240,134.920,69.440,0.000,0.000,516.030,0.000,23.240,50.540,6.190
207,0,72.830,26.440,45.380,18.150,17.360,141.040,15.820,9.080,1203.490,27.000,50.050,7.780,75.430
209,0,91.700,73.030,164.280,26.400,58.360,75.850,21.420,3.880,2906.690,173.000,56.720,3.980,37.170
210,0,65.310,33.090,78.350,5.840,25.300,57.200,13.580,4.870,890.400,8.000,18.990,7.790,15.660
211,0,64.820,233.590,341.940,15.530,25.320,191.940,15.940,7.760,946.420,22.000,32.970,10.170,65.740
212,0,85.010,264.300,63.840,73.600,19.380,123.800,11.440,6.100,2149.610,30.000,60.310,4.150,83.770
213,0,78.430,33.810,39.130,16.910,19.760,94.850,8.700,4.840,1721.120,66.000,56.430,4.460,69.690
214,0,71.860,11.650,66.450,16.830,25.890,54.780,7.140,3.880,1289.560,12.000,40.460,2.400,71.740
215,0,73.780,0.000,0.000,0.000,0.000,151.830,13.000,0.000,3035.860,0.000,59.770,3.690,81.020
1766,1,95.760,590.730,669.770,75.460,86.430,721.460,26.340,6.490,3401.450,810.000,41.640,20.100,43.950
219,1,83.320,76.630,120.280,24.030,35.530,777.880,17.050,3.480,3239.640,65.000,56.660,20.090,67.720
220,0,79.000,24.480,202.570,6.730,25.090,22.820,13.840,0.000,1925.830,2.000,50.450,12.840,4.650
1792,1,83.830,115.830,186.680,56.130,95.540,640.770,20.780,1.960,4557.310,254.000,58.920,12.440,66.600
223,0,79.940,298.520,364.790,90.760,120.720,869.090,17.070,9.840,1551.200,111.000,30.440,20.700,82.380
228,0,70.980,22.530,40.910,17.790,39.330,72.540,25.690,6.320,1404.940,4.000,69.860,5.020,71.790
229,0,57.370,9.170,23.750,3.780,7.020,608.460,17.910,1.080,1055.720,0.000,37.950,22.830,95.810
230,0,62.150,67.850,142.790,18.210,28.370,318.300,11.150,3.260,767.730,17.000,36.270,20.710,72.620
231,0,73.320,13.330,16.310,12.410,8.270,69.840,19.090,3.450,800.570,8.000,47.380,4.560,90.700
232,0,62.740,176.460,194.600,15.490,24.180,141.770,6.470,9.820,1107.670,15.000,33.160,4.910,86.410
233,0,81.560,6.530,7.030,2.510,2.510,4.020,2.230,0.000,835.240,0.000,31.440,1.900,7.970
234,1,90.580,1398.870,1774.740,199.550,274.330,2239.870,32.180,11.270,3090.420,1144.000,40.100,43.550,66.740
236,0,74.990,127.350,182.500,10.260,32.800,296.010,18.830,6.960,2055.770,18.000,49.690,7.310,97.930
237,1,77.900,113.440,454.030,34.050,75.950,1647.210,27.550,9.370,2343.280,36.000,45.220,34.120,93.170
239,0,64.290,17.560,76.580,15.650,10.580,1316.460,7.050,0.000,1960.310,13.000,46.100,31.950,96.910
240,1,81.080,2305.500,2813.930,84.520,119.110,1028.290,17.380,10.250,2563.750,1129.000,45.230,26.130,69.430
242,0,75.880,177.610,224.700,43.420,52.160,387.890,15.160,8.460,1628.950,24.000,45.790,14.090,77.380
243,0,76.510,51.130,505.610,10.510,27.610,211.300,10.840,4.630,1467.380,49.000,38.330,8.070,68.390
245,0,77.760,129.110,136.950,21.080,22.480,342.420,18.070,5.400,1679.530,64.000,46.130,10.110,93.040
247,1,78.160,404.080,477.400,62.760,79.160,820.250,19.170,4.820,1261.590,107.000,38.580,28.250,88.810
217,1,74.660,168.350,218.740,51.640,63.840,86.480,15.200,8.660,972.590,138.000,24.810,6.750,32.680
252,0,65.590,201.530,292.090,22.920,35.380,344.480,14.250,7.640,1322.190,20.000,44.340,18.670,61.870
254,0,80.920,6.790,38.890,8.610,8.090,51.110,10.300,2.870,1570.720,18.000,67.480,5.640,38.940
255,0,82.200,1.480,0.820,2.140,1.810,6.260,17.610,1.980,1345.920,5.000,69.650,0.910,35.740
257,0,63.630,262.410,311.890,23.840,32.820,18.140,26.770,9.310,789.820,93.000,31.240,11.500,6.240
258,1,67.990,277.160,375.120,53.660,70.400,241.000,16.730,10.420,741.200,162.000,30.240,13.930,70.600
260,0,57.770,7.780,19.460,3.340,5.000,180.010,19.900,0.000,1944.650,1.000,26.270,2.920,83.160
261,0,56.790,5.200,8.460,6.500,5.200,22.750,4.400,2.600,483.220,1.000,14.650,4.510,15.300
265,0,55.070,28.220,45.880,7.360,13.990,7.970,7.080,0.490,373.910,0.000,26.350,0.740,76.150
266,1,70.140,58.280,107.320,17.000,21.250,156.330,14.200,2.210,767.300,56.000,40.190,9.340,87.630
267,0,64.370,16.830,29.390,11.310,13.570,30.590,8.160,3.010,599.250,10.000,38.090,2.890,67.270
269,0,56.860,12.550,33.000,8.250,6.810,84.460,16.930,1.080,619.590,0.000,23.890,3.910,83.260
270,0,67.460,66.260,127.070,9.530,13.160,68.160,27.020,0.000,936.720,9.000,32.730,3.680,64.710
271,0,58.410,64.490,81.680,21.610,20.940,168.840,11.130,5.510,723.100,52.000,23.210,7.900,68.580
272,0,59.190,37.720,67.440,23.330,64.890,55.200,9.540,6.070,736.290,16.000,32.530,5.300,46.010
276,0,69.760,12.210,38.270,15.060,15.470,90.790,5.490,12.620,666.520,13.000,34.950,6.110,77.910
278,0,69.450,48.770,140.090,11.480,19.130,74.620,7.550,2.870,1111.110,4.000,43.290,3.470,83.880
281,0,64.520,420.240,436.240,22.200,27.100,106.580,6.960,7.840,687.960,24.000,19.120,7.360,40.220
283,0,60.380,123.460,129.680,27.380,42.810,157.000,19.570,9.460,960.890,27.000,42.210,12.640,54.560
284,0,67.080,100.560,130.940,11.390,17.170,251.860,26.360,22.130,1546.970,23.000,61.460,11.130,89.870
286,0,60.150,91.400,174.700,15.930,29.630,69.690,8.940,8.110,682.450,16.000,37.100,4.700,80.570
287,0,70.420,68.350,92.920,21.270,27.670,112.470,8.770,9.500,911.070,25.000,39.660,7.220,67.850
288,0,64.650,29.210,53.360,10.850,13.010,233.150,9.230,3.620,1236.060,4.000,42.850,9.210,87.750
291,0,61.190,70.890,97.990,28.180,29.920,73.300,13.300,6.940,1216.190,45.000,40.880,7.940,31.040
292,0,71.530,56.140,110.840,31.510,41.820,111.810,12.560,5.440,1034.860,18.000,35.260,5.450,69.910
293,0,71.580,1349.550,1385.710,50.010,48.990,37.880,9.220,41.560,842.660,95.000,33.190,3.190,46.710
1507,1,66.450,300.590,355.260,37.460,75.320,307.740,21.590,10.900,1018.050,217.000,19.250,8.450,68.880
295,0,69.960,464.230,575.380,32.590,58.700,1228.140,25.030,9.600,2269.550,38.000,44.860,42.470,57.160
170,1,75.360,381.850,448.030,55.290,65.480,555.590,25.060,8.710,1358.570,244.000,47.050,26.260,73.280
297,0,66.520,39.180,59.480,5.360,11.840,249.440,13.320,5.640,896.720,35.000,39.370,11.470,95.500
298,0,67.450,62.250,109.730,12.530,25.320,54.680,14.780,5.140,1021.170,3.000,35.460,4.720,40.260
299,0,55.440,31.910,33.520,4.040,15.350,40.290,14.710,11.710,543.700,3.000,17.490,2.660,48.790
301,0,67.840,84.520,169.610,34.930,67.580,91.680,17.280,3.520,1426.560,57.000,46.060,3.330,89.010
178,1,87.010,7351.080,8798.850,274.900,304.290,366.910,10.960,14.190,1168.800,1242.000,30.970,21.430,45.360
303,0,68.240,123.600,148.910,14.960,17.340,66.020,11.530,2.520,968.510,15.000,41.370,3.600,78.350
304,0,69.750,42.810,74.240,7.980,7.260,87.180,15.100,8.220,545.810,15.000,31.890,6.120,83.270
305,0,63.950,48.320,170.040,14.500,36.540,284.600,14.540,18.730,1065.670,6.000,41.840,13.250,84.330
306,0,65.880,113.430,192.280,19.290,21.490,349.470,12.200,5.960,1210.280,41.000,54.890,18.520,85.570
308,0,79.690,5.450,3.640,3.030,1.820,121.140,0.840,0.610,1094.500,0.000,38.540,5.290,80.610
309,0,86.800,86.160,0.830,16.860,3.120,150.740,16.000,1.870,1769.000,0.000,71.400,7.140,85.220
310,0,59.600,6.450,30.180,7.480,17.540,138.270,10.160,1.550,1251.060,3.000,48.220,5.430,98.150
311,0,55.030,94.680,154.430,9.680,19.780,133.610,11.750,0.420,992.770,14.000,33.680,4.700,96.460
312,0,72.820,44.530,63.220,18.140,8.520,76.630,48.070,6.600,1239.190,2.000,49.110,3.080,98.460
1520,1,71.970,188.600,243.450,40.420,46.750,375.960,18.640,3.080,2384.570,258.000,37.600,7.060,83.940
315,0,75.910,22.800,32.730,27.240,22.380,87.630,12.930,3.800,2224.320,25.000,82.720,3.260,100.000
318,0,69.630,254.080,315.490,18.100,32.810,230.600,20.690,5.140,808.800,336.000,34.810,14.480,68.540
319,0,76.100,39.490,72.060,25.850,36.800,418.710,15.890,0.000,1759.030,28.000,58.170,14.600,94.870
320,0,54.880,86.580,13.180,6.780,9.790,186.110,17.150,2.640,1397.830,0.000,32.700,4.350,100.000
321,0,71.690,15.340,17.800,2.450,3.070,19.850,5.850,0.000,1760.270,0.000,58.140,0.720,91.590
322,0,63.160,10.470,13.970,9.400,8.860,51.700,6.200,7.790,770.980,1.000,26.730,2.050,87.630
323,0,70.650,42.000,76.420,16.920,25.960,113.160,9.980,18.960,1294.730,14.000,47.750,4.360,95.650
324,0,71.770,102.230,109.920,43.160,32.330,93.790,21.490,7.510,1434.310,43.000,59.310,5.270,73.600
325,0,65.460,112.260,65.160,38.740,39.620,159.510,18.440,12.770,1078.460,17.000,35.740,7.040,75.040
326,0,66.140,3.650,5.480,1.830,1.560,47.200,8.330,1.830,401.550,0.000,26.360,3.750,82.720
327,0,56.560,10.110,17.130,4.910,8.280,85.780,17.510,2.390,344.840,13.000,16.990,4.320,97.710
328,0,59.730,7.650,23.820,4.480,7.940,53.140,10.350,1.010,556.610,4.000,28.530,3.010,90.400
329,0,65.670,12.380,113.860,4.130,4.540,36.010,6.380,6.600,864.590,1.000,39.100,2.030,80.270
330,0,66.860,70.800,95.690,9.110,17.120,96.690,9.850,4.980,1169.200,4.000,54.000,6.030,74.010
1,0,64.120,21.990,74.150,5.070,10.150,60.900,7.010,15.510,1065.590,0.000,44.280,5.730,44.130
2,0,67.090,43.080,38.540,5.830,3.240,81.550,11.510,4.210,426.990,0.000,22.380,4.730,90.280
3,0,63.470,77.960,152.550,9.120,20.970,63.460,8.840,4.480,550.510,90.000,29.040,4.260,78.580
4,0,72.840,363.860,405.410,59.730,60.390,150.560,18.670,12.350,1115.210,294.000,43.270,8.460,69.070
5,0,60.890,50.020,53.350,14.340,14.340,122.350,9.320,6.000,1151.880,9.000,40.410,5.690,75.420
6,0,61.100,21.010,22.570,4.670,6.230,241.770,6.620,3.890,592.780,2.000,21.510,9.290,94.480
7,0,50.260,138.990,217.510,23.340,33.950,113.440,8.700,1.060,603.160,1.000,21.850,4.110,100.000
9,0,66.530,1.920,20.000,2.310,5.380,45.350,5.140,3.080,592.090,4.000,36.480,3.110,89.770
11,0,65.510,31.120,45.210,9.740,14.260,56.440,16.570,4.350,862.510,16.000,45.890,4.100,73.290
12,0,72.470,25.870,16.090,15.000,13.480,123.710,13.540,0.650,2011.400,7.000,69.260,4.260,100.000
13,0,69.660,19.860,35.310,4.750,10.020,182.700,23.580,0.170,790.750,8.000,23.780,11.650,47.150
14,0,65.080,81.260,202.740,11.220,16.420,63.230,6.970,26.810,1017.670,22.000,33.750,2.100,100.000
15,0,68.710,199.570,238.000,34.730,44.940,190.850,28.720,11.620,1159.880,378.000,48.490,9.520,83.850
16,0,65.230,52.180,74.590,28.970,42.870,218.000,24.390,17.570,849.210,56.000,38.800,15.130,65.840
17,1,69.420,503.820,632.110,34.940,41.560,285.980,21.190,5.550,1436.800,176.000,49.380,17.700,55.510
19,0,64.240,141.670,180.950,17.860,14.290,29.090,6.860,15.480,241.520,2.000,12.020,3.370,43.010
21,0,61.250,96.660,134.870,5.620,7.310,72.980,7.490,1.120,826.290,5.000,28.760,2.540,100.000
23,0,54.730,19.780,45.490,4.350,13.450,185.090,14.710,0.400,622.810,0.000,24.070,7.460,95.830
24,0,54.370,35.710,53.950,9.880,28.880,46.660,6.020,3.800,827.680,1.000,36.650,2.960,69.790
25,0,60.500,150.760,280.560,12.210,18.310,175.680,17.020,11.940,589.040,23.000,31.950,13.390,71.180
26,0,69.410,48.620,74.880,11.020,12.320,66.210,8.220,0.000,886.300,8.000,42.210,3.540,89.150
27,0,63.290,61.940,71.840,16.350,18.880,58.790,16.520,10.360,668.720,64.000,31.230,3.280,83.590
28,0,70.190,232.100,350.210,35.020,22.660,106.980,15.610,2.750,4036.300,23.000,71.320,2.310,81.740
30,0,65.280,98.620,148.280,17.510,31.110,159.120,12.430,6.680,741.070,118.000,36.060,10.300,75.180
34,0,71.430,28.830,71.770,9.510,11.650,50.380,7.640,0.000,621.320,1.000,27.040,3.650,60.040
35,0,58.610,163.540,378.020,20.110,43.030,668.760,11.500,14.340,1287.980,14.000,46.050,25.510,93.740
36,0,68.520,43.600,56.600,43.200,39.000,4.930,22.950,24.400,695.240,58.000,35.550,7.460,3.380
39,0,62.260,10.920,24.690,9.020,11.160,51.410,10.630,3.320,637.200,19.000,28.080,2.790,81.100
40,0,63.770,255.690,271.140,10.570,26.830,123.520,14.470,4.880,1111.830,8.000,49.590,10.340,53.260
41,0,62.070,62.120,123.910,17.840,26.430,97.700,20.860,1.980,841.840,19.000,33.980,5.330,73.930
43,0,71.250,39.530,144.000,8.780,13.180,35.340,7.100,3.450,708.830,14.000,36.310,3.620,50.000
44,0,64.940,60.510,85.820,17.910,26.340,187.890,11.740,1.960,787.960,0.000,30.710,8.820,83.070
45,0,73.320,79.510,96.680,25.520,32.250,47.840,21.100,7.430,823.740,93.000,40.060,9.130,25.490
46,0,54.840,7.320,19.820,6.100,13.110,48.930,11.590,16.470,807.450,2.000,29.950,3.110,58.330
48,0,81.000,129.410,94.120,0.000,3.920,22.070,15.380,0.000,272.120,0.000,6.550,10.760,4.940
50,0,67.780,20.610,74.690,17.860,29.100,74.420,23.680,2.870,873.710,28.000,36.600,5.240,59.470
51,0,71.670,2.470,30.830,12.330,30.830,97.750,15.280,1.230,2079.680,23.000,40.850,1.920,100.000
52,0,72.570,11.370,58.770,2.840,9.480,93.150,13.460,3.790,1046.430,0.000,31.050,2.760,100.000
53,0,57.400,179.450,201.220,9.560,16.990,41.620,7.280,53.620,324.270,5.000,11.740,3.560,42.300
57,0,82.930,458.410,289.730,60.910,71.070,260.720,12.570,3.120,1516.500,8.000,49.720,21.470,39.810
58,0,90.950,9.970,12.180,26.580,21.040,192.380,13.980,7.750,4713.850,5.000,57.340,6.480,36.130
1519,1,80.030,474.830,574.830,87.170,87.910,139.870,30.160,13.960,1737.590,1463.000,52.670,20.070,21.130
60,0,82.720,6.760,53.840,6.240,9.360,70.870,11.070,1.300,2924.280,0.000,52.050,2.860,44.050
61,0,50.250,21.110,33.170,10.550,5.530,64.230,15.360,1.010,593.860,6.000,24.290,4.070,64.470
62,0,54.380,23.780,29.720,4.690,6.260,0.000,7.880,4.380,133.630,3.000,7.910,0.730,0.000
63,0,52.120,71.670,64.240,4.460,11.510,397.600,14.750,1.110,637.090,6.000,32.610,27.520,73.960
64,0,61.430,128.730,122.980,20.060,24.830,124.040,3.800,28.280,467.360,33.000,23.460,9.210,67.600
66,0,60.540,3.910,58.680,23.470,30.320,48.810,14.850,0.980,632.080,0.000,21.880,2.600,64.970
70,0,60.810,75.940,171.510,13.980,33.670,48.900,18.620,2.490,692.540,84.000,26.750,4.660,40.510
72,0,63.290,49.450,56.900,17.550,21.270,39.810,11.950,54.770,422.570,6.000,18.320,5.230,32.970
76,0,66.090,228.740,216.870,19.060,21.220,23.450,7.690,12.230,598.460,6.000,34.820,3.110,43.900
77,0,68.840,967.050,1004.710,94.990,96.710,211.550,13.900,18.830,743.680,38.000,31.270,13.880,64.100
78,0,66.960,27.570,56.930,5.620,13.280,151.000,12.120,1.790,677.870,2.000,32.650,11.060,65.790
79,0,63.140,115.840,145.390,10.050,13.990,111.770,15.800,3.740,913.610,0.000,36.740,5.670,79.270
80,0,62.980,0.670,4.030,2.020,2.690,101.540,10.790,0.000,464.580,0.000,17.400,4.140,91.920
82,1,68.060,97.620,171.060,35.380,40.980,276.080,13.440,0.000,1178.760,68.000,32.040,9.200,81.600
83,0,64.470,446.450,539.480,27.200,30.830,132.660,13.510,5.920,1126.790,64.000,36.940,8.050,54.060
85,0,64.450,55.370,116.490,13.930,37.790,25.470,8.230,2.790,1133.990,71.000,40.070,6.780,13.280
86,0,73.520,35.980,66.310,12.460,18.110,140.660,21.390,1.410,1153.640,8.000,54.370,6.760,98.030
87,1,75.910,234.990,528.610,37.190,63.670,741.690,18.610,0.000,1443.780,114.000,35.490,25.340,71.960
88,1,70.100,213.270,322.640,37.550,46.360,598.430,21.840,2.910,1069.720,1.000,32.050,19.200,93.380
91,0,70.870,76.690,252.570,17.420,38.470,315.170,15.140,2.180,1093.240,13.000,40.390,11.920,97.640
92,0,62.620,17.770,14.690,11.610,11.610,14.220,4.330,6.870,575.010,5.000,27.930,5.660,12.200
93,0,71.820,70.480,66.050,6.640,12.920,85.720,13.990,2.580,1067.570,5.000,44.840,3.600,100.000
95,0,62.220,116.960,153.510,17.540,16.080,75.810,13.640,1.460,698.940,0.000,15.520,1.880,89.630
331,0,60.840,33.150,67.090,2.370,11.050,230.680,9.850,37.880,603.400,0.000,27.760,10.610,100.000
333,0,62.320,52.260,81.520,22.160,31.770,51.470,12.590,9.620,1136.210,14.000,22.920,2.370,43.900
334,0,57.930,51.410,96.150,21.370,35.560,413.820,16.330,7.340,939.810,33.000,31.580,15.650,88.850
251,1,74.150,275.610,401.740,53.780,88.730,448.410,19.550,10.960,1033.970,98.000,32.250,21.420,65.310
337,1,74.330,439.240,561.550,33.400,44.680,406.330,18.810,10.060,708.560,292.000,31.400,26.090,69.030
340,0,72.670,43.780,50.120,10.940,7.200,92.810,13.110,3.460,695.050,5.000,35.880,6.590,72.670
341,0,65.870,90.420,96.560,9.760,12.660,170.440,14.200,0.720,686.450,0.000,29.870,7.420,100.000
342,0,76.250,97.990,120.750,32.450,36.240,152.950,22.940,8.640,702.630,47.000,33.380,11.490,63.230
313,1,75.650,345.320,484.530,79.010,97.590,258.650,22.830,8.660,1302.280,937.000,40.240,21.090,37.890
294,1,79.180,1478.720,1630.920,195.690,196.980,286.690,24.590,24.600,1039.830,947.000,18.960,30.890,16.920
296,1,78.250,1642.090,2136.900,169.280,224.690,964.570,20.210,9.670,1320.820,520.000,33.270,36.140,67.240
1527,1,64.370,214.270,339.550,17.990,28.070,65.840,11.690,4.770,703.450,151.000,16.520,5.430,28.490
1530,0,65.270,3.350,5.930,7.730,5.930,11.540,10.060,8.510,906.610,15.000,24.830,4.300,7.350
1544,1,65.680,36.950,54.340,21.550,34.170,172.670,15.950,12.930,810.350,29.000,19.360,6.520,63.290
1556,0,69.700,0.000,0.000,0.000,0.000,29.570,0.000,0.000,1897.460,0.000,30.430,14.860,3.190
1558,0,80.250,31.130,14.820,6.110,7.410,98.470,5.850,0.190,1299.900,4.000,54.880,4.160,100.000
1560,0,70.210,38.270,54.300,10.340,12.670,59.250,13.020,1.810,709.010,2.000,25.140,2.820,74.480
1562,0,86.490,188.390,332.630,34.590,39.370,109.260,20.490,4.970,1479.670,275.000,52.950,3.990,97.990
1563,0,58.560,67.580,84.280,14.930,12.150,41.360,8.760,2.780,883.660,5.000,41.970,3.550,55.360
1564,0,74.320,63.930,69.540,26.740,31.840,66.680,26.760,4.330,1617.610,21.000,45.440,3.940,47.510
1566,0,66.050,12.600,39.440,4.440,12.140,511.340,13.260,0.070,2632.310,15.000,67.550,13.190,99.480
1569,0,84.990,53.850,73.080,21.150,20.190,0.000,15.480,0.000,0.000,11.000,0.000,5.170,0.000
1570,0,68.220,66.020,127.690,41.730,46.710,67.510,1.560,4.980,1089.140,0.000,37.740,3.780,61.850
1572,0,87.130,94.680,143.160,9.580,28.140,152.040,8.400,0.890,3072.590,45.000,41.890,3.700,56.040
1574,0,70.580,14.730,235.070,0.320,4.800,10.320,11.110,0.000,1248.230,0.000,48.030,2.930,13.540
1576,0,74.530,88.870,107.770,8.610,31.720,9.300,8.760,1.260,1115.390,10.000,46.120,0.950,40.530
1577,0,70.730,68.240,94.870,14.420,15.530,38.530,14.750,0.550,606.280,1.000,32.120,2.040,100.000
1578,0,65.640,22.030,46.510,2.450,8.810,29.040,6.400,0.490,1132.890,2.000,33.180,2.200,38.670
1579,0,77.800,408.540,722.820,6.530,23.800,11.410,10.150,3.030,747.770,31.000,30.440,3.230,14.380
1580,0,67.730,39.170,93.420,4.560,15.340,735.360,9.110,0.000,2490.360,24.000,68.090,20.200,99.540
1581,0,80.310,31.210,112.720,3.470,21.580,197.780,22.270,12.520,3116.550,8.000,53.120,3.620,93.040
1582,0,79.900,64.280,98.040,11.770,14.060,20.570,10.600,0.240,2025.930,0.000,54.370,1.520,36.270
1584,0,77.770,91.320,160.770,6.110,15.430,20.950,6.650,2.890,621.870,8.000,27.890,0.940,100.000
1585,0,83.600,79.340,27.360,2.740,14.180,93.060,11.480,0.990,588.950,0.000,30.780,4.860,100.000
1586,0,75.300,197.540,232.600,1.970,11.140,45.890,6.900,1.310,604.030,3.000,24.650,1.870,100.000
1587,0,78.580,183.510,220.860,24.130,33.040,186.480,14.950,4.000,2912.050,33.000,53.400,5.720,59.780
1588,0,78.900,357.270,528.180,11.350,36.690,131.810,8.820,0.720,1250.780,33.000,42.760,4.600,97.860
1589,0,84.340,65.940,84.910,13.340,25.550,189.380,17.130,15.400,1773.690,21.000,55.310,6.060,97.480
1590,0,83.430,108.400,122.420,7.650,11.480,91.170,19.000,5.950,1280.810,0.000,41.530,4.610,64.120
1591,0,80.330,34.040,46.240,9.050,21.450,36.320,13.870,3.540,2313.540,5.000,59.120,1.230,75.170
1593,0,73.030,75.050,147.460,39.680,44.970,1045.340,12.650,2.310,2437.510,0.000,52.330,24.000,93.520
1594,0,85.210,52.550,251.740,13.460,18.330,121.970,16.770,2.270,1378.250,0.000,56.810,5.120,98.240
1595,0,90.650,580.040,698.700,34.410,61.250,102.580,13.780,0.000,2013.620,299.000,34.250,8.450,20.650
1596,1,76.920,24.470,35.970,11.500,24.470,75.090,8.480,0.880,3167.350,32.000,61.000,1.830,78.870
1597,0,74.690,158.250,186.160,10.220,21.590,96.880,20.510,3.670,1519.310,17.000,57.160,4.040,90.180
1599,0,56.490,5.950,19.170,10.910,19.170,91.990,10.910,2.310,1118.480,15.000,42.040,3.950,87.520
1601,0,60.260,43.010,64.640,15.040,8.700,49.830,7.880,7.760,1441.680,23.000,37.610,2.660,48.810
1602,0,59.930,75.670,89.200,7.520,8.020,51.260,7.270,1.500,1061.950,8.000,18.310,2.520,35.120
1603,0,55.860,4.170,15.490,2.680,7.740,170.250,9.070,10.130,1159.810,0.000,42.890,6.850,91.980
1606,0,74.700,195.200,294.610,7.070,19.850,66.030,16.350,2.410,1137.420,18.000,56.680,3.430,95.970
1607,0,82.020,173.910,224.130,26.090,23.250,26.100,15.310,2.480,1212.080,12.000,49.960,4.580,23.480
1608,0,75.830,328.950,735.780,21.860,38.260,91.540,9.520,2.390,665.950,7.000,26.430,7.720,47.070
1609,0,79.070,33.420,33.100,4.140,11.140,59.760,6.090,0.320,565.650,23.000,30.770,3.550,91.670
1610,0,78.680,206.060,228.790,18.840,28.300,55.330,10.290,1.150,2179.220,27.000,49.590,3.900,32.290
1612,0,80.200,18.890,31.660,5.760,18.890,190.280,14.590,1.260,1008.040,10.000,49.090,9.570,96.850
1616,0,78.490,1004.580,1489.400,20.700,60.390,90.290,6.890,4.070,3029.940,41.000,49.160,3.450,42.440
1618,0,82.970,260.750,327.770,28.090,37.020,115.240,17.830,4.790,2347.530,25.000,56.090,2.890,95.420
1619,0,84.410,209.620,241.560,15.970,29.760,57.280,11.940,2.000,1012.510,30.000,45.550,2.870,89.670
1621,0,79.300,38.150,55.050,3.880,9.590,104.970,12.080,1.140,1646.460,0.000,58.180,3.820,97.050
1622,0,76.570,21.410,50.580,6.210,7.760,79.130,17.960,0.310,1941.260,5.000,54.750,2.590,86.320
1624,0,83.920,43.520,91.990,2.770,8.110,80.380,19.710,2.770,891.470,5.000,44.420,4.680,85.540
1626,0,74.030,13.720,28.560,7.050,15.210,100.030,9.140,0.740,1796.460,5.000,46.280,3.060,84.240
1631,0,58.510,5.490,4.880,0.000,2.440,189.590,8.380,0.000,516.860,0.000,22.950,8.820,95.390
1632,0,55.910,28.710,122.810,15.950,3.190,182.110,12.930,3.190,619.220,1.000,24.550,8.110,89.080
1634,0,51.970,18.850,41.900,4.890,6.980,5.180,3.410,1.400,591.930,0.000,31.020,15.020,1.810
1635,0,66.260,2.400,32.980,4.800,3.000,10.300,9.890,7.800,86.770,172.000,6.360,8.760,8.620
1636,0,51.850,35.050,64.400,8.320,7.890,135.510,7.920,0.000,545.820,6.000,27.810,7.610,90.760
1638,0,55.380,12.620,45.180,9.300,15.610,123.590,16.390,3.990,541.510,42.000,16.560,9.100,41.530
1639,0,70.380,122.100,228.290,12.900,67.070,308.070,10.710,3.870,1248.030,50.000,31.880,10.060,78.230
1640,0,64.980,16.610,30.400,6.410,13.460,242.720,16.270,0.650,1160.610,27.000,27.830,7.090,82.080
1641,0,51.600,27.560,36.020,6.820,10.910,235.500,9.520,7.090,968.850,3.000,34.490,18.080,46.380
1642,0,0.000,2760.870,663.680,44.990,72.090,426.020,47.270,52.700,1274.260,128.000,35.360,12.770,92.600
1643,0,52.060,84.940,105.660,28.310,30.390,247.580,12.120,10.360,858.530,5.000,30.270,9.340,93.480
1644,0,75.030,45.850,0.000,30.570,0.000,0.000,3.880,0.000,365.130,0.000,4.500,4.060,0.000
1645,0,80.790,0.290,0.290,1.140,0.860,9.470,4.290,1.710,715.830,5.000,20.930,3.140,8.830
1646,0,75.500,0.000,0.000,2.630,2.630,3.850,14.120,0.000,456.900,0.000,26.490,12.800,1.740
1647,0,81.650,3.840,3.070,1.020,1.790,248.440,0.000,2.050,1538.550,15.000,39.240,14.060,45.070
1648,0,73.370,2.680,2.340,2.010,3.010,9.380,1.930,0.000,415.920,0.000,15.080,0.340,100.000
1649,0,59.610,246.870,135.220,6.270,16.120,150.910,10.830,2.390,977.040,14.000,30.350,5.490,85.320
1650,0,59.080,45.720,55.210,17.250,25.020,147.330,17.200,2.590,1066.780,56.000,41.030,10.910,51.950
1651,0,98.000,0.000,0.000,0.000,2.400,0.000,9.760,0.000,200.400,0.000,4.870,0.000,0.000
1652,0,87.400,15.790,18.610,2.820,3.950,22.940,12.760,5.070,403.480,11.000,24.390,13.560,10.230
1653,0,67.670,10.830,10.830,2.410,1.200,4.810,0.000,0.000,135.520,0.000,9.310,16.150,2.050
1654,0,86.460,13.610,14.510,4.540,3.630,832.340,11.930,6.350,2983.030,0.000,69.340,19.350,100.000
1655,0,72.780,0.000,8.100,0.000,4.050,5.770,0.000,0.000,125.990,0.000,6.750,9.390,3.290
1656,0,70.070,27.790,27.790,7.670,8.620,0.000,7.970,0.000,299.660,10.000,14.120,2.380,0.000
1657,0,70.340,84.680,0.000,0.000,0.000,0.000,2.700,0.000,485.770,0.000,30.100,0.000,0.000
1658,0,53.860,21.300,33.830,8.350,13.370,77.740,5.450,2.510,289.240,15.000,14.200,4.770,80.010
1659,0,80.640,0.000,0.000,0.000,0.000,0.000,0.000,0.000,6145.710,0.000,50.050,0.000,0.000
1660,0,51.950,27.510,33.860,2.120,2.120,16.030,15.220,5.290,433.460,3.000,20.920,8.760,8.840
1661,0,58.250,19.180,34.650,36.650,19.180,423.780,9.000,11.170,1119.640,29.000,36.130,14.230,96.100
1662,0,55.230,15.510,25.850,17.810,12.060,61.150,20.000,2.870,902.800,9.000,29.270,10.460,18.950
1663,0,74.570,0.450,0.890,3.120,4.910,35.530,11.310,1.780,875.650,0.000,32.640,4.920,26.900
1664,0,57.180,20.350,28.150,7.120,8.480,109.090,10.790,0.000,517.550,10.000,24.440,5.410,95.260
1665,0,50.810,83.610,117.160,11.350,21.680,0.000,9.770,1.030,341.720,60.000,17.200,6.650,0.000
1666,0,50.530,40.220,51.190,3.660,29.250,1295.450,9.300,4.880,2339.170,0.000,54.690,31.140,97.260
1668,0,0.000,0.000,0.000,0.000,0.000,0.000,0.000,0.000,1573.360,0.000,38.130,0.000,0.000
1669,0,51.990,11.160,15.950,9.570,1.590,41.480,10.000,0.000,262.770,0.000,9.080,2.510,57.150
1670,0,61.820,20.780,14.720,5.190,0.870,60.280,19.830,3.460,436.070,0.000,17.840,3.530,69.890
1671,0,52.240,43.540,111.760,25.400,39.910,197.200,14.810,2.900,1392.180,2.000,39.660,6.460,86.920
1672,0,52.880,280.310,16.600,25.820,16.600,90.400,16.510,4.610,674.840,3.000,16.290,3.180,68.540
1673,0,67.950,19.830,4.060,8.110,2.250,12.940,12.700,8.560,295.320,19.000,15.440,3.420,19.760
1674,0,56.870,5.100,5.100,5.100,6.560,80.690,17.580,0.730,791.140,5.000,27.200,3.430,80.990
1675,0,60.140,30.160,29.170,9.390,11.370,183.620,7.980,14.830,1704.240,27.000,45.390,5.340,91.610
1676,0,69.320,13.550,11.950,7.970,7.170,0.000,9.550,0.800,201.890,0.000,12.680,4.400,0.000
1677,0,47.580,14.570,25.770,12.320,3.360,4.890,7.760,0.000,279.370,0.000,12.400,2.530,8.560
1678,0,63.380,16.630,42.420,9.380,22.380,422.720,14.130,5.540,1451.760,7.000,51.430,20.050,74.690
1679,0,67.700,0.000,0.000,0.000,0.000,2.350,9.680,6.920,934.490,0.000,41.060,0.100,100.000
1680,0,69.410,5.240,5.240,1.310,1.310,15.380,4.510,1.970,433.150,0.000,20.040,6.010,11.840
1681,0,53.660,2.910,10.470,3.490,9.890,29.100,7.830,0.000,497.270,0.000,17.540,3.610,28.420
1682,0,52.740,18.780,19.180,5.590,10.390,23.430,7.240,2.800,382.680,3.000,18.200,3.210,34.730
1683,0,55.040,4.990,16.220,3.740,6.240,134.380,16.600,0.000,541.100,3.000,20.850,5.470,94.720
1685,0,55.390,28.690,58.040,19.560,19.560,199.790,13.540,7.830,758.730,16.000,28.840,8.090,93.870
1686,0,48.000,5.570,4.370,1.990,5.170,167.110,11.760,5.170,288.440,2.000,16.900,10.070,97.220
1687,0,54.430,67.750,83.230,7.530,13.380,131.300,12.230,0.000,464.420,19.000,14.240,4.410,91.280
1688,0,70.270,0.000,0.850,1.710,4.270,44.990,12.980,9.400,310.340,0.000,17.600,3.910,65.230
1689,0,55.220,53.000,20.270,10.130,17.150,205.700,11.850,2.340,563.870,0.000,22.730,8.860,93.620
1690,0,49.780,11.740,21.430,5.100,7.140,238.070,13.660,7.660,544.470,7.000,17.350,8.040,94.340
1691,0,60.330,134.940,151.750,11.810,17.970,91.530,7.550,1.330,1170.410,22.000,44.040,3.700,93.090
1693,0,59.270,0.000,10.470,2.620,3.930,0.000,2.040,0.000,315.890,7.000,11.370,0.000,0.000
1694,0,74.850,72.260,22.040,3.350,0.560,76.280,9.090,0.000,927.460,0.000,26.960,2.850,77.780
1695,0,50.670,103.710,118.960,7.120,16.270,155.250,9.920,2.030,632.700,4.000,19.740,5.230,92.710
1696,0,72.390,23.910,19.020,1.630,0.540,7.000,8.630,3.260,212.860,2.000,10.190,14.070,2.380
1697,0,55.700,6.550,37.560,19.160,21.930,222.160,20.260,6.810,888.530,16.000,35.930,11.530,77.910
1698,0,71.820,11.790,10.400,2.770,3.470,2.180,10.840,0.000,403.630,0.000,15.990,13.200,0.660
1700,0,71.410,15.380,9.950,1.810,4.520,6.330,8.000,0.900,240.770,0.000,11.310,8.120,3.660
1701,0,60.770,404.560,617.440,18.580,35.210,224.190,22.100,3.260,1054.640,24.000,33.860,7.610,94.630
1702,0,57.460,179.740,190.550,1.800,6.000,58.290,10.700,2.100,569.670,32.000,33.520,4.670,73.510
1703,0,71.240,14.810,28.810,27.980,27.980,23.260,5.810,1.650,239.860,0.000,16.250,12.030,13.100
1704,0,65.040,0.000,5.260,0.000,7.890,48.410,6.380,0.000,423.220,0.000,17.960,2.050,100.000
1705,0,51.920,572.320,513.840,17.230,8.880,130.980,5.080,2.610,892.280,5.000,15.390,3.030,74.550
1706,0,50.100,10.400,26.590,4.620,19.650,51.020,5.440,1.160,1703.100,0.000,41.160,2.300,53.730
1707,0,67.190,46.150,135.500,9.650,14.890,102.070,6.920,0.630,1511.550,12.000,38.720,4.530,57.660
1709,0,55.500,127.080,125.230,10.770,4.620,65.760,2.930,0.000,1193.080,2.000,13.210,1.540,47.140
1710,0,47.340,22.430,21.110,1.320,9.230,44.090,23.580,2.640,767.490,0.000,28.670,2.630,62.560
1711,0,80.520,84.500,172.710,11.160,19.360,28.370,16.550,0.380,3450.850,34.000,53.160,1.170,37.210
1712,0,61.540,48.500,74.180,0.000,0.000,0.000,4.260,0.000,41.600,8.000,1.740,1.730,0.000
1713,0,58.210,38.420,91.990,41.670,23.810,151.550,12.750,0.000,899.480,0.000,27.170,4.990,91.800
1714,0,74.310,8.140,11.050,18.620,19.200,125.610,13.610,0.000,870.130,18.000,25.720,4.090,90.750
1715,0,69.410,51.930,30.560,11.380,20.370,521.510,8.730,1.000,1756.340,6.000,68.080,20.390,99.160
1716,0,80.150,0.000,308.460,7.460,32.340,318.480,11.270,0.000,2182.500,0.000,70.240,10.250,100.000
1717,0,74.380,4.300,4.300,1.720,3.440,58.140,1.130,0.860,1866.610,0.000,33.070,10.640,9.680
1718,0,75.670,1.740,2.840,6.320,7.200,58.660,35.590,0.000,978.570,3.000,49.920,3.280,91.150
1719,0,71.360,23.820,57.220,9.580,34.850,29.830,19.870,1.740,695.910,3.000,36.910,3.410,46.460
1720,0,81.360,30.110,5.220,2.460,2.760,98.380,6.810,0.000,1048.610,13.000,39.600,6.210,59.850
1722,0,75.980,0.000,0.000,1.120,0.560,6.240,5.840,0.000,800.720,12.000,31.550,1.390,17.730
1723,0,79.630,30.150,9.740,1.860,0.460,0.000,1.630,0.000,1125.450,0.000,15.460,5.490,0.000
1724,0,64.250,275.950,344.270,20.980,30.120,149.440,19.830,3.230,778.170,27.000,26.530,7.580,67.180
1725,0,89.780,2064.720,2047.450,85.120,95.160,548.230,16.940,17.460,1694.140,3096.000,46.570,26.920,55.980
1727,0,63.420,34.350,99.440,2.620,6.220,189.920,6.370,0.330,907.870,14.000,38.740,8.630,93.860
1728,0,87.490,320.600,265.340,51.030,43.810,44.820,10.000,4.480,1597.860,12.000,48.740,2.830,48.300
1729,0,75.360,0.000,0.000,0.000,0.000,0.000,5.620,0.000,190.290,0.000,5.330,0.000,0.000
1730,0,73.620,0.730,24.160,1.460,25.620,2.560,5.960,0.000,268.390,20.000,12.760,6.740,1.810
1731,0,74.810,82.390,110.190,6.980,12.730,21.820,22.680,0.000,2789.710,51.000,65.680,1.840,27.890
1734,0,89.280,254.840,224.310,18.340,32.890,89.370,5.080,2.370,3162.650,13.000,52.380,1.830,80.700
1735,0,72.310,21.880,16.210,7.290,9.320,248.250,2.890,1.620,5699.440,12.000,60.640,2.640,100.000
1736,0,59.090,12.360,20.850,1.160,12.360,171.620,13.130,6.180,522.340,2.000,22.650,8.200,90.810
1737,0,63.630,3.840,4.480,2.560,1.920,21.900,3.140,4.480,330.090,0.000,16.000,2.920,36.310
1738,0,79.220,6.490,4.320,5.190,3.460,0.000,8.070,0.000,1594.120,0.000,42.100,7.980,0.000
1739,0,64.240,3.740,11.220,7.950,11.690,151.850,10.000,0.470,1798.720,0.000,30.490,2.570,100.000
1741,0,54.580,17.250,1.440,1.440,1.440,67.620,17.390,1.440,292.850,1.000,18.850,5.950,73.200
1742,0,62.110,27.380,38.780,18.250,17.490,119.220,10.470,0.000,854.880,0.000,18.210,3.070,82.610
1743,0,59.330,4.800,6.170,2.060,4.120,0.000,10.560,0.000,781.540,3.000,30.550,3.080,0.000
1745,0,62.050,24.670,34.640,3.670,11.550,328.800,11.060,0.520,760.030,6.000,25.510,12.000,91.930
1747,0,63.930,5.010,25.790,0.360,5.370,107.860,10.320,0.360,624.670,0.000,29.330,6.600,76.740
1748,0,67.320,171.220,242.740,7.800,7.370,65.040,16.920,1.730,2666.610,3.000,43.950,1.280,83.660
1749,0,60.100,0.000,14.570,1.620,5.670,60.870,11.460,0.000,645.950,0.000,16.850,1.810,87.530
1750,0,53.780,22.270,40.840,5.570,12.990,11.110,9.430,0.930,1169.420,4.000,29.660,2.850,9.890
1751,0,50.100,20.290,24.030,1.600,17.090,154.640,16.580,1.600,838.330,2.000,25.420,5.990,78.300
1752,0,57.550,50.350,127.250,1.660,6.090,75.900,11.170,0.000,997.440,6.000,34.040,3.010,86.010
1753,0,57.140,3.190,123.800,3.990,11.980,57.900,9.230,3.190,631.280,0.000,21.640,2.480,79.930
1755,0,62.290,1.340,6.990,2.150,5.380,65.480,12.590,0.000,722.960,7.000,24.040,4.280,50.840
1756,0,49.590,32.420,34.380,4.910,4.910,11.170,5.490,0.000,1177.290,0.000,28.420,3.320,8.120
1757,0,57.770,92.280,154.390,16.410,16.110,203.600,17.410,0.290,1461.410,23.000,41.720,6.750,86.160
1758,0,96.470,95.400,73.390,19.750,19.390,166.710,18.470,1.540,2961.020,3.000,75.200,4.420,95.870
1759,0,59.020,161.840,166.900,9.860,8.090,138.960,14.750,0.510,1686.090,12.000,53.780,4.760,93.180
1760,0,73.280,0.000,0.000,0.000,0.000,29.690,7.930,2.360,6090.030,0.000,56.620,0.280,100.000
1761,0,73.610,0.640,2.580,2.580,3.860,18.380,14.660,0.000,561.960,0.000,21.380,2.670,26.220
1762,0,55.120,0.000,29.830,1.570,7.850,0.000,5.970,0.000,553.170,1.000,24.840,0.820,0.000
1763,0,54.750,16.770,2.620,6.810,1.050,63.090,4.070,0.000,621.880,0.000,16.610,2.510,67.210
1764,0,59.890,10.020,27.410,5.800,13.180,42.170,13.550,2.640,630.330,12.000,21.990,19.000,7.740
1765,0,82.430,9.470,14.820,9.640,16.070,68.280,21.900,3.750,1498.580,63.000,56.630,5.310,48.570
302,1,76.610,99.870,140.040,37.000,39.380,140.470,21.010,3.630,1870.050,153.000,49.570,10.030,37.130
1767,0,88.700,28.390,61.690,22.710,47.540,80.730,12.370,2.880,2298.660,157.000,42.780,6.040,24.890
1768,0,70.660,35.590,33.270,25.530,9.280,247.940,16.390,0.000,4511.740,2.000,52.910,3.460,84.000
1771,0,92.300,1484.470,1741.120,84.130,99.730,21.740,16.790,10.120,1139.960,1183.000,26.910,14.240,3.600
1772,0,54.950,28.710,27.430,9.570,11.480,255.250,33.890,4.470,829.180,7.000,24.810,8.440,90.500
1774,0,70.210,15.310,9.740,2.780,3.250,88.230,11.040,0.460,470.180,1.000,24.400,4.580,100.000
1775,0,57.450,0.000,52.940,0.000,4.960,46.040,16.670,0.000,1067.080,0.000,18.710,1.170,69.110
1776,0,67.740,22.290,25.480,7.960,14.330,10.850,4.320,1.590,399.500,0.000,19.620,3.590,14.860
1778,0,58.180,34.290,31.170,17.140,15.060,184.060,11.500,2.600,426.200,0.000,18.980,11.260,72.790
1779,0,55.450,0.000,9.350,0.000,9.350,46.770,7.350,0.000,423.890,0.000,16.200,2.970,60.260
1780,0,71.040,1.710,23.120,5.990,2.570,7.460,5.290,13.700,359.280,0.000,13.010,5.920,4.560
1781,0,88.240,9.730,118.160,14.770,9.060,124.440,10.420,1.010,2242.640,0.000,60.720,6.760,49.840
1782,0,64.990,16.370,53.520,11.040,22.070,172.360,16.240,6.170,1169.250,51.000,52.760,8.250,94.290
1783,0,91.360,28.720,54.060,22.910,24.950,158.060,17.990,3.320,3804.010,51.000,44.120,14.590,12.560
1784,0,61.650,3.060,37.960,9.790,17.750,146.950,10.270,6.120,2636.880,4.000,55.790,3.580,86.840
1785,1,80.540,4447.990,11675.680,122.850,229.320,1115.780,32.300,25.390,1496.950,101.000,29.930,55.680,40.070
1786,0,76.940,158.120,84.940,8.300,13.150,77.830,19.520,3.460,1480.330,49.000,59.900,3.280,95.940
1787,0,72.150,46.190,164.130,1.850,26.170,77.640,10.500,0.000,1585.070,7.000,36.270,3.820,46.530
1788,0,77.930,121.810,152.050,20.300,18.140,268.770,10.880,2.160,1790.370,33.000,44.180,7.040,94.240
1789,0,73.940,6.570,11.830,2.630,2.630,104.150,3.570,0.000,1366.310,0.000,22.680,1.790,96.830
1790,0,54.820,0.000,4.180,2.790,6.970,3.360,11.250,0.000,410.030,9.000,17.880,6.530,2.250
1791,0,77.490,0.000,72.590,12.520,7.510,64.760,0.000,0.000,2163.490,0.000,42.990,1.670,76.870
336,1,66.240,250.510,410.710,38.340,56.660,176.960,20.650,9.190,1001.170,246.000,40.520,12.890,55.570
1794,0,75.240,36.280,45.130,10.620,7.960,21.950,3.330,4.420,482.420,2.000,25.110,4.930,23.150
1795,0,69.940,0.000,51.670,3.830,9.570,10.680,8.960,0.000,758.720,0.000,22.650,3.010,10.570
1796,0,75.420,5.040,17.550,1.680,31.190,40.240,16.370,0.370,959.000,4.000,41.970,2.120,83.210
1798,0,92.940,101.840,82.210,6.130,9.820,0.000,10.220,0.000,1932.600,0.000,46.240,1.830,0.000
1800,0,73.460,0.000,0.000,0.000,3.930,0.000,1.790,0.000,454.050,0.000,17.330,3.890,0.000
1804,0,78.220,128.120,143.610,1.890,6.240,53.790,9.400,7.940,736.240,4.000,44.480,3.870,83.960
1806,0,73.790,1.910,3.830,6.700,4.780,13.760,6.200,0.960,1182.200,0.000,33.590,0.390,100.000
1807,0,72.160,26.440,19.040,4.230,10.580,0.000,0.000,4.230,279.090,2.000,11.150,6.060,0.000
1810,0,88.000,16.650,19.490,6.380,9.210,296.020,17.940,0.000,1988.550,13.000,44.890,37.320,17.900
1812,0,76.260,0.000,12.670,0.000,0.670,0.000,0.530,0.000,2073.150,0.000,53.160,5.810,0.000
